{
  "buildFiles": [
    "/home/huskerdu/Android/Sdk/ndk-bundle/build/cmake/platforms.cmake",
    "/home/huskerdu/Programs/SDL2-2.0.9/sdl2.pc.in",
    "/home/huskerdu/Programs/SDL2-2.0.9/sdl2-config.in",
    "/home/huskerdu/Programs/SDL2-2.0.9/cmake_uninstall.cmake.in",
    "/home/huskerdu/Android/Sdk/ndk-bundle/build/cmake/android.toolchain.cmake",
    "/home/huskerdu/Programs/SDL2-2.0.9/CMakeLists.txt",
    "/home/huskerdu/Programs/SDL2-2.0.9/SDL2.spec.in",
    "/home/huskerdu/Programs/SDL2-2.0.9/cmake/sdlchecks.cmake",
    "/home/huskerdu/AndroidStudioProjects/winmo/CMakeLists.txt",
    "/home/huskerdu/Programs/SDL2-2.0.9/cmake/macros.cmake",
    "/home/huskerdu/Programs/SDL2-2.0.9/include/SDL_config.h.cmake"
  ],
  "cleanCommands": [
    "/home/huskerdu/Programs/cmake-3.13.3-Linux-x86_64/bin/cmake --build \"/home/huskerdu/AndroidStudioProjects/winmo/android-project/app/.externalNativeBuild/cmake/armDebug/arm64-v8a\" --target clean"
  ],
  "libraries": {
    "hidapi-Debug-arm64-v8a": {
      "artifactName": "hidapi",
      "buildCommand": "/home/huskerdu/Programs/cmake-3.13.3-Linux-x86_64/bin/cmake --build \"/home/huskerdu/AndroidStudioProjects/winmo/android-project/app/.externalNativeBuild/cmake/armDebug/arm64-v8a\" --target hidapi",
      "abi": "arm64-v8a",
      "output": "/home/huskerdu/AndroidStudioProjects/winmo/android-project/app/build/intermediates/cmake/arm/debug/obj/arm64-v8a/libhidapi.so"
    },
    "SDL2-Debug-arm64-v8a": {
      "artifactName": "SDL2",
      "buildCommand": "/home/huskerdu/Programs/cmake-3.13.3-Linux-x86_64/bin/cmake --build \"/home/huskerdu/AndroidStudioProjects/winmo/android-project/app/.externalNativeBuild/cmake/armDebug/arm64-v8a\" --target SDL2",
      "abi": "arm64-v8a",
      "output": "/home/huskerdu/AndroidStudioProjects/winmo/android-project/app/build/intermediates/cmake/arm/debug/obj/arm64-v8a/libSDL2.so"
    },
    "game-Debug-arm64-v8a": {
      "artifactName": "game",
      "buildCommand": "/home/huskerdu/Programs/cmake-3.13.3-Linux-x86_64/bin/cmake --build \"/home/huskerdu/AndroidStudioProjects/winmo/android-project/app/.externalNativeBuild/cmake/armDebug/arm64-v8a\" --target game",
      "abi": "arm64-v8a",
      "output": "/home/huskerdu/AndroidStudioProjects/winmo/android-project/app/build/intermediates/cmake/arm/debug/obj/arm64-v8a/libgame.so"
    },
    "SDL2main-Debug-arm64-v8a": {
      "artifactName": "SDL2main",
      "buildCommand": "/home/huskerdu/Programs/cmake-3.13.3-Linux-x86_64/bin/cmake --build \"/home/huskerdu/AndroidStudioProjects/winmo/android-project/app/.externalNativeBuild/cmake/armDebug/arm64-v8a\" --target SDL2main",
      "abi": "arm64-v8a",
      "output": "/home/huskerdu/Programs/SDL2-2.0.9/build_arm64-v8a/libSDL2main.a"
    },
    "SDL2-static-Debug-arm64-v8a": {
      "artifactName": "SDL2-static",
      "buildCommand": "/home/huskerdu/Programs/cmake-3.13.3-Linux-x86_64/bin/cmake --build \"/home/huskerdu/AndroidStudioProjects/winmo/android-project/app/.externalNativeBuild/cmake/armDebug/arm64-v8a\" --target SDL2-static",
      "abi": "arm64-v8a",
      "output": "/home/huskerdu/Programs/SDL2-2.0.9/build_arm64-v8a/libSDL2.a"
    }
  }
}